14900940
bano-01.csv:122252
bano-02.csv:184063
bano-03.csv:92132
bano-04.csv:22742
bano-05.csv:12883
bano-06.csv:146174
bano-07.csv:47283
bano-08.csv:48877
bano-09.csv:14128
bano-10.csv:65625
bano-11.csv:117391
bano-12.csv:52248
bano-13.csv:256006
bano-14.csv:169846
bano-15.csv:25965
bano-16.csv:98084
bano-17.csv:300670
bano-18.csv:111952
bano-19.csv:44325
bano-21.csv:151244
bano-22.csv:182585
bano-23.csv:26183
bano-24.csv:52684
bano-25.csv:133525
bano-26.csv:88431
bano-27.csv:117810
bano-28.csv:130233
bano-29.csv:283475
bano-2A.csv:2261
bano-2B.csv:5923
bano-30.csv:173477
bano-31.csv:293096
bano-32.csv:32843
bano-33.csv:417259
bano-34.csv:298442
bano-35.csv:234299
bano-36.csv:79790
bano-37.csv:171067
bano-38.csv:207227
bano-39.csv:89945
bano-40.csv:157103
bano-41.csv:132507
bano-42.csv:130238
bano-43.csv:26665
bano-44.csv:397386
bano-45.csv:201947
bano-46.csv:21522
bano-47.csv:73621
bano-48.csv:11679
bano-49.csv:224990
bano-50.csv:153088
bano-51.csv:92227
bano-52.csv:35649
bano-53.csv:89925
bano-54.csv:212089
bano-55.csv:20585
bano-56.csv:204090
bano-57.csv:254087
bano-58.csv:74453
bano-59.csv:871496
bano-60.csv:231661
bano-61.csv:60734
bano-62.csv:532604
bano-63.csv:164790
bano-64.csv:143531
bano-65.csv:60754
bano-66.csv:153973
bano-67.csv:264602
bano-68.csv:205939
bano-69.csv:243235
bano-70.csv:60796
bano-71.csv:137167
bano-72.csv:170869
bano-73.csv:53198
bano-74.csv:178663
bano-75.csv:141412
bano-76.csv:250856
bano-77.csv:284528
bano-78.csv:204273
bano-79.csv:152135
bano-80.csv:135808
bano-81.csv:104665
bano-82.csv:77617
bano-83.csv:164456
bano-84.csv:131959
bano-85.csv:289635
bano-86.csv:145912
bano-87.csv:113215
bano-88.csv:138390
bano-89.csv:123788
bano-90.csv:34847
bano-91.csv:252967
bano-92.csv:147689
bano-93.csv:200267
bano-94.csv:176952
bano-95.csv:163879
bano-971.csv:45901
bano-972.csv:41370
bano-973.csv:14540
bano-974.csv:211571
